L1DDC	1	Layer	1	IspFEB	0	Q	1	FiberNo	0	FEB	1.1	Elink1	8	Elink2	12        Elink3 16     Elink4 20
L1DDC	1	Layer	1	IspFEB	0	Q	2	FiberNo	0	FEB	2.0	Elink1	24	Elink2	28        Elink3 32     Elink4 36
L1DDC	1	Layer	1	IspFEB	0	Q	3	FiberNo	0	FEB	3.0	Elink1	33	Elink2	37        Elink3 41     Elink4 45
L1DDC	1	Layer	1	IspFEB	0	Q	1	FiberNo	1	FEB	1.2	Elink1	72	Elink2	76        Elink3 80     Elink4 84
L1DDC	1	Layer	1	IspFEB	0	Q	2	FiberNo	1	FEB	2.0	Elink1	88	Elink2	92        Elink3 96     Elink4 100
L1DDC	1	Layer	1	IspFEB	0	Q	3	FiberNo	1	FEB	3.0	Elink1	97	Elink2	101	  Elink3 105    Elink4 109
L1DDC	2	Layer	1	IspFEB	1	Q	1	FiberNo	2	FEB	1.1	Elink1	136	Elink2	140	  Elink3 144	Elink4 148
L1DDC	2	Layer	1	IspFEB	1	Q	2	FiberNo	2	FEB	2.0	Elink1	152	Elink2	156	  Elink3 160	Elink4 164
L1DDC	2	Layer	1	IspFEB	1	Q	3	FiberNo	2	FEB	3.0	Elink1	161	Elink2	165	  Elink3 169	Elink4 173
L1DDC	2	Layer	1	IspFEB	1	Q	1	FiberNo	3	FEB	1.2	Elink1	200	Elink2	204	  Elink3 208	Elink4 212
L1DDC	2	Layer	1	IspFEB	1	Q	2	FiberNo	3	FEB	2.0	Elink1	216	Elink2	220	  Elink3 224	Elink4 228
L1DDC	2	Layer	1	IspFEB	1	Q	3	FiberNo	3	FEB	3.0	Elink1	225	Elink2	229	  Elink3 233	Elink4 237
L1DDC	3	Layer	2	IspFEB	0	Q	1	FiberNo	4	FEB	1.1	Elink1	264	Elink2	268	  Elink3 272	Elink4 276
L1DDC	3	Layer	2	IspFEB	0	Q	2	FiberNo	4	FEB	2.0	Elink1	280	Elink2	284	  Elink3 288	Elink4 292
L1DDC	3	Layer	2	IspFEB	0	Q	3	FiberNo	4	FEB	3.0	Elink1	289	Elink2	293	  Elink3 297	Elink4 301
L1DDC	3	Layer	2	IspFEB	0	Q	1	FiberNo	5	FEB	1.2	Elink1	328	Elink2	332	  Elink3 336	Elink4 340
L1DDC	3	Layer	2	IspFEB	0	Q	2	FiberNo	5	FEB	2.0	Elink1	344	Elink2	348	  Elink3 352	Elink4 356
L1DDC	3	Layer	2	IspFEB	0	Q	3	FiberNo	5	FEB	3.0	Elink1	353	Elink2	357	  Elink3 361	Elink4 365
L1DDC	4	Layer	2	IspFEB	1	Q	1	FiberNo	6	FEB	1.1	Elink1	392	Elink2	396	  Elink3 400	Elink4 404
L1DDC	4	Layer	2	IspFEB	1	Q	2	FiberNo	6	FEB	2.0	Elink1	408	Elink2	412	  Elink3 416	Elink4 420
L1DDC	4	Layer	2	IspFEB	1	Q	3	FiberNo	6	FEB	3.0	Elink1	417	Elink2	421	  Elink3 425	Elink4 429
L1DDC	4	Layer	2	IspFEB	1	Q	1	FiberNo	7	FEB	1.2	Elink1	456	Elink2	460	  Elink3 464	Elink4 468
L1DDC	4	Layer	2	IspFEB	1	Q	2	FiberNo	7	FEB	2.0	Elink1	472	Elink2	476	  Elink3 480	Elink4 484
L1DDC	4	Layer	2	IspFEB	1	Q	3	FiberNo	7	FEB	3.0	Elink1	481	Elink2	485	  Elink3 489	Elink4 493
L1DDC	5	Layer	3	IspFEB	0	Q	1	FiberNo	8	FEB	1.1	Elink1	520	Elink2	524	  Elink3 528	Elink4 532
L1DDC	5	Layer	3	IspFEB	0	Q	2	FiberNo	8	FEB	2.0	Elink1	536	Elink2	540	  Elink3 544	Elink4 548
L1DDC	5	Layer	3	IspFEB	0	Q	3	FiberNo	8	FEB	3.0	Elink1	545	Elink2	549	  Elink3 553	Elink4 557
L1DDC	5	Layer	3	IspFEB	0	Q	1	FiberNo	9	FEB	1.2	Elink1	584	Elink2	588	  Elink3 592	Elink4 596
L1DDC	5	Layer	3	IspFEB	0	Q	2	FiberNo	9	FEB	2.0	Elink1	600	Elink2	604	  Elink3 608	Elink4 612
L1DDC	5	Layer	3	IspFEB	0	Q	3	FiberNo	9	FEB	3.0	Elink1	609	Elink2	613	  Elink3 617	Elink4 621
L1DDC	6	Layer	3	IspFEB	1	Q	1	FiberNo	10	FEB	1.1	Elink1	648	Elink2	652	  Elink3 656	Elink4 660
L1DDC	6	Layer	3	IspFEB	1	Q	2	FiberNo	10	FEB	2.0	Elink1	664	Elink2	668	  Elink3 672	Elink4 676
L1DDC	6	Layer	3	IspFEB	1	Q	3	FiberNo	10	FEB	3.0	Elink1	673	Elink2	677	  Elink3 681	Elink4 685
L1DDC	6	Layer	3	IspFEB	1	Q	1	FiberNo	11	FEB	1.2	Elink1	712	Elink2	716	  Elink3 720	Elink4 724
L1DDC	6	Layer	3	IspFEB	1	Q	2	FiberNo	11	FEB	2.0	Elink1	728	Elink2	732	  Elink3 736	Elink4 740
L1DDC	6	Layer	3	IspFEB	1	Q	3	FiberNo	11	FEB	3.0	Elink1	737	Elink2	741	  Elink3 745	Elink4 749
L1DDC	7	Layer	4	IspFEB	0	Q	1	FiberNo	12	FEB	1.1	Elink1	776	Elink2	780	  Elink3 784	Elink4 788
L1DDC	7	Layer	4	IspFEB	0	Q	2	FiberNo	12	FEB	2.0	Elink1	792	Elink2	796	  Elink3 800	Elink4 804
L1DDC	7	Layer	4	IspFEB	0	Q	3	FiberNo	12	FEB	3.0	Elink1	801	Elink2	805	  Elink3 809	Elink4 813
L1DDC	7	Layer	4	IspFEB	0	Q	1	FiberNo	13	FEB	1.2	Elink1	840	Elink2	844	  Elink3 848	Elink4 852
L1DDC	7	Layer	4	IspFEB	0	Q	2	FiberNo	13	FEB	2.0	Elink1	856	Elink2	860	  Elink3 864	Elink4 868
L1DDC	7	Layer	4	IspFEB	0	Q	3	FiberNo	13	FEB	3.0	Elink1	865	Elink2	869	  Elink3 873	Elink4 877
L1DDC	8	Layer	4	IspFEB	1	Q	1	FiberNo	14	FEB	1.1	Elink1	904	Elink2	908	  Elink3 912	Elink4 916
L1DDC	8	Layer	4	IspFEB	1	Q	2	FiberNo	14	FEB	2.0	Elink1	920	Elink2	924	  Elink3 928	Elink4 932
L1DDC	8	Layer	4	IspFEB	1	Q	3	FiberNo	14	FEB	3.0	Elink1	929	Elink2	933	  Elink3 937	Elink4 941
L1DDC	8	Layer	4	IspFEB	1	Q	1	FiberNo	15	FEB	1.2	Elink1	968	Elink2	972	  Elink3 976	Elink4 980
L1DDC	8	Layer	4	IspFEB	1	Q	2	FiberNo	15	FEB	2.0	Elink1	984	Elink2	988	  Elink3 992	Elink4 996
L1DDC	8	Layer	4	IspFEB	1	Q	3	FiberNo	15	FEB	3.0	Elink1	993	Elink2	997	  Elink3 1001   Elink4 1005
